[INFO] Scanning for projects...
[INFO] 
[INFO] -----------------------------< aed:labo4 >------------------------------
[INFO] Building labo4 1.0-SNAPSHOT
[INFO] --------------------------------[ jar ]---------------------------------
[INFO] 
[INFO] --- jacoco-maven-plugin:0.8.10:prepare-agent (jacoco-initialize) @ labo4 ---
[INFO] argLine set to -javaagent:/home/sdandois/.m2/repository/org/jacoco/org.jacoco.agent/0.8.10/org.jacoco.agent-0.8.10-runtime.jar=destfile=/tmp/tmpzt79h2f_/target/jacoco.exec
[INFO] 
[INFO] --- maven-resources-plugin:2.6:resources (default-resources) @ labo4 ---
[INFO] Using 'UTF-8' encoding to copy filtered resources.
[INFO] skip non existing resourceDirectory /tmp/tmpzt79h2f_/src/main/resources
[INFO] 
[INFO] --- maven-compiler-plugin:3.1:compile (default-compile) @ labo4 ---
[INFO] Changes detected - recompiling the module!
[INFO] Compiling 3 source files to /tmp/tmpzt79h2f_/target/classes
[INFO] -------------------------------------------------------------
[ERROR] COMPILATION ERROR : 
[INFO] -------------------------------------------------------------
[ERROR] /tmp/tmpzt79h2f_/src/main/java/aed/ListaEnlazada.java:[182,32] ';' expected
[ERROR] /tmp/tmpzt79h2f_/src/main/java/aed/ListaEnlazada.java:[182,33] not a statement
[ERROR] /tmp/tmpzt79h2f_/src/main/java/aed/ListaEnlazada.java:[184,17] illegal start of expression
[ERROR] /tmp/tmpzt79h2f_/src/main/java/aed/ListaEnlazada.java:[184,34] <identifier> expected
[ERROR] /tmp/tmpzt79h2f_/src/main/java/aed/ListaEnlazada.java:[184,35] illegal start of expression
[ERROR] /tmp/tmpzt79h2f_/src/main/java/aed/ListaEnlazada.java:[186,17] illegal start of expression
[ERROR] /tmp/tmpzt79h2f_/src/main/java/aed/ListaEnlazada.java:[413,21] <identifier> expected
[ERROR] /tmp/tmpzt79h2f_/src/main/java/aed/ListaEnlazada.java:[417,16] class, interface, or enum expected
[ERROR] /tmp/tmpzt79h2f_/src/main/java/aed/ListaEnlazada.java:[421,13] class, interface, or enum expected
[ERROR] /tmp/tmpzt79h2f_/src/main/java/aed/ListaEnlazada.java:[424,13] class, interface, or enum expected
[ERROR] /tmp/tmpzt79h2f_/src/main/java/aed/ListaEnlazada.java:[426,13] class, interface, or enum expected
[ERROR] /tmp/tmpzt79h2f_/src/main/java/aed/ListaEnlazada.java:[428,13] class, interface, or enum expected
[ERROR] /tmp/tmpzt79h2f_/src/main/java/aed/ListaEnlazada.java:[431,16] class, interface, or enum expected
[ERROR] /tmp/tmpzt79h2f_/src/main/java/aed/ListaEnlazada.java:[433,13] class, interface, or enum expected
[ERROR] /tmp/tmpzt79h2f_/src/main/java/aed/ListaEnlazada.java:[434,13] class, interface, or enum expected
[ERROR] /tmp/tmpzt79h2f_/src/main/java/aed/ListaEnlazada.java:[435,13] class, interface, or enum expected
[ERROR] /tmp/tmpzt79h2f_/src/main/java/aed/ListaEnlazada.java:[436,9] class, interface, or enum expected
[ERROR] /tmp/tmpzt79h2f_/src/main/java/aed/ListaEnlazada.java:[439,16] class, interface, or enum expected
[ERROR] /tmp/tmpzt79h2f_/src/main/java/aed/ListaEnlazada.java:[441,13] class, interface, or enum expected
[ERROR] /tmp/tmpzt79h2f_/src/main/java/aed/ListaEnlazada.java:[443,17] class, interface, or enum expected
[ERROR] /tmp/tmpzt79h2f_/src/main/java/aed/ListaEnlazada.java:[444,17] class, interface, or enum expected
[ERROR] /tmp/tmpzt79h2f_/src/main/java/aed/ListaEnlazada.java:[445,13] class, interface, or enum expected
[ERROR] /tmp/tmpzt79h2f_/src/main/java/aed/ListaEnlazada.java:[447,17] class, interface, or enum expected
[ERROR] /tmp/tmpzt79h2f_/src/main/java/aed/ListaEnlazada.java:[448,17] class, interface, or enum expected
[ERROR] /tmp/tmpzt79h2f_/src/main/java/aed/ListaEnlazada.java:[450,17] class, interface, or enum expected
[ERROR] /tmp/tmpzt79h2f_/src/main/java/aed/ListaEnlazada.java:[452,17] class, interface, or enum expected
[ERROR] /tmp/tmpzt79h2f_/src/main/java/aed/ListaEnlazada.java:[455,9] class, interface, or enum expected
[ERROR] /tmp/tmpzt79h2f_/src/main/java/aed/ListaEnlazada.java:[458,12] class, interface, or enum expected
[ERROR] /tmp/tmpzt79h2f_/src/main/java/aed/ListaEnlazada.java:[460,5] class, interface, or enum expected
[INFO] 29 errors 
[INFO] -------------------------------------------------------------
[INFO] ------------------------------------------------------------------------
[INFO] BUILD FAILURE
[INFO] ------------------------------------------------------------------------
[INFO] Total time:  2.693 s
[INFO] Finished at: 2023-10-21T17:28:16-03:00
[INFO] ------------------------------------------------------------------------
[ERROR] Failed to execute goal org.apache.maven.plugins:maven-compiler-plugin:3.1:compile (default-compile) on project labo4: Compilation failure: Compilation failure: 
[ERROR] /tmp/tmpzt79h2f_/src/main/java/aed/ListaEnlazada.java:[182,32] ';' expected
[ERROR] /tmp/tmpzt79h2f_/src/main/java/aed/ListaEnlazada.java:[182,33] not a statement
[ERROR] /tmp/tmpzt79h2f_/src/main/java/aed/ListaEnlazada.java:[184,17] illegal start of expression
[ERROR] /tmp/tmpzt79h2f_/src/main/java/aed/ListaEnlazada.java:[184,34] <identifier> expected
[ERROR] /tmp/tmpzt79h2f_/src/main/java/aed/ListaEnlazada.java:[184,35] illegal start of expression
[ERROR] /tmp/tmpzt79h2f_/src/main/java/aed/ListaEnlazada.java:[186,17] illegal start of expression
[ERROR] /tmp/tmpzt79h2f_/src/main/java/aed/ListaEnlazada.java:[413,21] <identifier> expected
[ERROR] /tmp/tmpzt79h2f_/src/main/java/aed/ListaEnlazada.java:[417,16] class, interface, or enum expected
[ERROR] /tmp/tmpzt79h2f_/src/main/java/aed/ListaEnlazada.java:[421,13] class, interface, or enum expected
[ERROR] /tmp/tmpzt79h2f_/src/main/java/aed/ListaEnlazada.java:[424,13] class, interface, or enum expected
[ERROR] /tmp/tmpzt79h2f_/src/main/java/aed/ListaEnlazada.java:[426,13] class, interface, or enum expected
[ERROR] /tmp/tmpzt79h2f_/src/main/java/aed/ListaEnlazada.java:[428,13] class, interface, or enum expected
[ERROR] /tmp/tmpzt79h2f_/src/main/java/aed/ListaEnlazada.java:[431,16] class, interface, or enum expected
[ERROR] /tmp/tmpzt79h2f_/src/main/java/aed/ListaEnlazada.java:[433,13] class, interface, or enum expected
[ERROR] /tmp/tmpzt79h2f_/src/main/java/aed/ListaEnlazada.java:[434,13] class, interface, or enum expected
[ERROR] /tmp/tmpzt79h2f_/src/main/java/aed/ListaEnlazada.java:[435,13] class, interface, or enum expected
[ERROR] /tmp/tmpzt79h2f_/src/main/java/aed/ListaEnlazada.java:[436,9] class, interface, or enum expected
[ERROR] /tmp/tmpzt79h2f_/src/main/java/aed/ListaEnlazada.java:[439,16] class, interface, or enum expected
[ERROR] /tmp/tmpzt79h2f_/src/main/java/aed/ListaEnlazada.java:[441,13] class, interface, or enum expected
[ERROR] /tmp/tmpzt79h2f_/src/main/java/aed/ListaEnlazada.java:[443,17] class, interface, or enum expected
[ERROR] /tmp/tmpzt79h2f_/src/main/java/aed/ListaEnlazada.java:[444,17] class, interface, or enum expected
[ERROR] /tmp/tmpzt79h2f_/src/main/java/aed/ListaEnlazada.java:[445,13] class, interface, or enum expected
[ERROR] /tmp/tmpzt79h2f_/src/main/java/aed/ListaEnlazada.java:[447,17] class, interface, or enum expected
[ERROR] /tmp/tmpzt79h2f_/src/main/java/aed/ListaEnlazada.java:[448,17] class, interface, or enum expected
[ERROR] /tmp/tmpzt79h2f_/src/main/java/aed/ListaEnlazada.java:[450,17] class, interface, or enum expected
[ERROR] /tmp/tmpzt79h2f_/src/main/java/aed/ListaEnlazada.java:[452,17] class, interface, or enum expected
[ERROR] /tmp/tmpzt79h2f_/src/main/java/aed/ListaEnlazada.java:[455,9] class, interface, or enum expected
[ERROR] /tmp/tmpzt79h2f_/src/main/java/aed/ListaEnlazada.java:[458,12] class, interface, or enum expected
[ERROR] /tmp/tmpzt79h2f_/src/main/java/aed/ListaEnlazada.java:[460,5] class, interface, or enum expected
[ERROR] -> [Help 1]
[ERROR] 
[ERROR] To see the full stack trace of the errors, re-run Maven with the -e switch.
[ERROR] Re-run Maven using the -X switch to enable full debug logging.
[ERROR] 
[ERROR] For more information about the errors and possible solutions, please read the following articles:
[ERROR] [Help 1] http://cwiki.apache.org/confluence/display/MAVEN/MojoFailureException
